{
  "agg": {
    "cn": "人工智能",
    "count": 15,
    "en": "artificial intelligence，AI，artificial intelligence, AI，artificial intelligence, AI ",
    "k": "cn",
    "tw": "人工智能，人工智慧",
    "xks": "船舶工程，自然辩证法，计算机科学技术，心理学，生理学，地理信息系统，语言学，药学，化学工程，自动化科学技术，化学工程（第二版），信息科学技术"
  },
  "currentPage": 1,
  "data": [
    {
      "also_name": [],
      "category": "B",
      "cn": "<span class='red'>人工智能</span>",
      "comm_name": [],
      "definition": "",
      "en": "artificial intelligence",
      "ext_cn": "人工智能",
      "favorite": false,
      "full_name": [],
      "full_subject_name": "船舶工程",
      "id": "d5980347-1a7b-11e6-83d5-00ff801a943b",
      "index": 1,
      "once_name": [],
      "other_lang": {
        "en": [
          "artificial intelligence"
        ]
      },
      "publish_year": "2003",
      "score": 7.6041765,
      "seq": 0,
      "short_name": [],
      "source": "海峡两岸船舶工程名词",
      "subject_name": "船舶工程",
      "subject_name_l1": "船舶工程",
      "tw": "<span class='red'>人工智能</span>",
      "ver": ""
    },
    {
      "also_name": [],
      "category": "A",
      "cn": "<span class='red'>人工智能</span>",
      "comm_name": [],
      "definition": "",
      "en": "artificial intelligence",
      "ext_cn": "人工智能",
      "favorite": false,
      "full_name": [],
      "full_subject_name": "自然辩证法_技术哲学 _工程哲学",
      "id": "684660d6-2a33-11e6-ae66-00ff801a943b",
      "index": 2,
      "once_name": [],
      "other_lang": {
        "en": [
          "artificial intelligence"
        ]
      },
      "publish_year": 2003,
      "score": 7.520238,
      "seq": 0,
      "short_name": [],
      "source": "自然辩证法名词",
      "subject_name": "工程哲学",
      "subject_name_l1": "自然辩证法",
      "tw": "",
      "ver": "第一版"
    },
    {
      "also_name": [],
      "category": "A",
      "cn": "<span class='red'>人工智能</span>",
      "comm_name": [],
      "definition": "解释和模拟<span class='red'>人</span>类<span class='red'>智能</span>、<span class='red'>智能</span>行为及其规律的学科。主要任务是建立<span class='red'>智能</span>信息处理理论，进而设计可展现近似于<span class='red'>人</span>类<span class='red'>智能</span>行为的计算机系统。它是1956年提出的计算科学的一个分支, 但也是<span class='red'>人</span>文科学的一门研究对象。",
      "en": "artificial intelligence",
      "ext_cn": "人工智能",
      "favorite": false,
      "full_name": [],
      "full_subject_name": "计算机科学技术_人工智能",
      "id": "dcea2634-d403-425c-8edf-e5969e52bad5",
      "index": 3,
      "once_name": [],
      "other_lang": {
        "en": [
          "artificial intelligence"
        ]
      },
      "publish_year": "2018",
      "score": 7.520238,
      "seq": 0,
      "short_name": [],
      "source": "计算机科学技术名词 ",
      "subject_name": "人工智能",
      "subject_name_l1": "计算机科学技术",
      "tw": "",
      "ver": "第三版"
    },
    {
      "also_name": [],
      "category": "A",
      "cn": "<span class='red'>人工智能</span>",
      "comm_name": [],
      "definition": "研究和设计具有<span class='red'>智能</span>的机器系统的学科。",
      "en": "artificial intelligence",
      "ext_cn": "人工智能",
      "favorite": false,
      "full_name": [],
      "full_subject_name": "心理学_认知与实验心理学",
      "id": "68bc55da-2a33-11e6-9ef4-00ff801a943b",
      "index": 4,
      "once_name": [],
      "other_lang": {
        "en": [
          "artificial intelligence",
          "AI"
        ]
      },
      "publish_year": 2014,
      "score": 7.520238,
      "seq": 0,
      "short_name": [],
      "source": "心理学名词",
      "subject_name": "认知与实验心理学",
      "subject_name_l1": "心理学",
      "tw": "",
      "ver": "第二版"
    },
    {
      "also_name": [],
      "category": "A",
      "cn": "<span class='red'>人工智能</span>",
      "comm_name": [],
      "definition": "",
      "en": "artificial intelligence",
      "ext_cn": "人工智能",
      "favorite": false,
      "full_name": [],
      "full_subject_name": "生理学_中枢神经系统",
      "id": "6a81da3b-2a33-11e6-b922-00ff801a943b",
      "index": 5,
      "once_name": [],
      "other_lang": {
        "en": [
          "artificial intelligence"
        ]
      },
      "publish_year": 1989,
      "score": 7.520238,
      "seq": 0,
      "short_name": [],
      "source": "生理学名词",
      "subject_name": "中枢神经系统",
      "subject_name_l1": "生理学",
      "tw": "",
      "ver": "第一版"
    },
    {
      "also_name": [],
      "category": "A",
      "cn": "<span class='red'>人工智能</span>",
      "comm_name": [],
      "definition": "研究、开发用于模拟、延伸和扩展<span class='red'>人</span>的<span class='red'>智能</span>的理论、方法、技术及应用系统的一门新的技术科学。",
      "en": "artificial intelligence",
      "ext_cn": "人工智能",
      "favorite": false,
      "full_name": [],
      "full_subject_name": "地理信息系统_基本概念",
      "id": "64b600cb-2a33-11e6-a51d-00ff801a943b",
      "index": 6,
      "once_name": [],
      "other_lang": {
        "en": [
          "artificial intelligence",
          "AI"
        ]
      },
      "publish_year": 2012,
      "score": 7.520238,
      "seq": 0,
      "short_name": [],
      "source": "地理信息系统名词",
      "subject_name": "基本概念",
      "subject_name_l1": "地理信息系统",
      "tw": "",
      "ver": "第二版"
    },
    {
      "also_name": [],
      "category": "A",
      "cn": "<span class='red'>人工智能</span>",
      "comm_name": [],
      "definition": "利用计算机系统模拟<span class='red'>人</span>类<span class='red'>智能</span>活动的研究领域。包括专家系统、自然语言理解、机器学习、自动定理证明、模式识别、知识<span class='red'>工</span>程、<span class='red'>智能</span>数据库、自动编程、<span class='red'>智能</span>控制等。",
      "en": "artificial intelligence",
      "ext_cn": "人工智能",
      "favorite": false,
      "full_name": [],
      "full_subject_name": "语言学_计算语言学_总论",
      "id": "6664a176-2a33-11e6-9f22-00ff801a943b",
      "index": 7,
      "once_name": [],
      "other_lang": {
        "en": [
          "artificial intelligence"
        ]
      },
      "publish_year": 2011,
      "score": 7.520238,
      "seq": 0,
      "short_name": [],
      "source": "语言学名词",
      "subject_name": "总论",
      "subject_name_l1": "语言学",
      "tw": "",
      "ver": "第一版"
    },
    {
      "also_name": [],
      "category": "A",
      "cn": "<span class='red'>人工智能</span>",
      "comm_name": [],
      "definition": "计算机科学与心理学相结合而产生的研究用计算机实现<span class='red'>人</span>的<span class='red'>智能</span>行为和功<span class='red'>能</span>的一门学科。<span class='red'>人工智能</span>的<span class='red'>智能</span>范畴一般包括<span class='red'>人</span>的<span class='red'>智能</span>行为，如图像和声音识别、学习、计划、决策、解决问题、自然语言理解等。",
      "en": "artificial intelligence",
      "ext_cn": "人工智能",
      "favorite": false,
      "full_name": [],
      "full_subject_name": "药学_药物分析",
      "id": "837089a7-03c9-4dd9-83e7-2ef6c9ea70e5",
      "index": 8,
      "once_name": [],
      "other_lang": {
        "en": [
          "artificial intelligence"
        ]
      },
      "publish_year": "2014",
      "score": 7.520238,
      "seq": 0,
      "short_name": [],
      "source": "药学名词",
      "subject_name": "药物分析",
      "subject_name_l1": "药学",
      "tw": "",
      "ver": "第二版"
    },
    {
      "also_name": [],
      "category": "A",
      "cn": "<span class='red'>人工智能</span>",
      "comm_name": [],
      "definition": "",
      "en": "artificial intelligence",
      "ext_cn": "人工智能",
      "favorite": false,
      "full_name": [],
      "full_subject_name": "化学工程_过程系统工程 _过程系统工程",
      "id": "74aadca0-2a33-11e6-a48f-00ff801a943b",
      "index": 9,
      "once_name": [],
      "other_lang": {
        "en": [
          "artificial intelligence",
          "AI"
        ]
      },
      "publish_year": 1995,
      "score": 7.520238,
      "seq": 0,
      "short_name": [],
      "source": "化学工程名词",
      "subject_name": "过程系统工程",
      "subject_name_l1": "化学工程",
      "tw": "",
      "ver": "第一版"
    },
    {
      "also_name": [],
      "category": "A",
      "cn": "<span class='red'>人工智能</span>",
      "comm_name": [],
      "definition": "",
      "en": "artificial intelligence",
      "ext_cn": "人工智能",
      "favorite": false,
      "full_name": [],
      "full_subject_name": "自动化科学技术_模式识别、智能控制与机器人 _模式识别与智能控制",
      "id": "70e16a68-2a33-11e6-a72a-00ff801a943b",
      "index": 10,
      "once_name": [],
      "other_lang": {
        "en": [
          "artificial intelligence",
          "AI"
        ]
      },
      "publish_year": 1990,
      "score": 7.520238,
      "seq": 0,
      "short_name": [],
      "source": "自动化名词",
      "subject_name": "模式识别与智能控制",
      "subject_name_l1": "自动化科学技术",
      "tw": "",
      "ver": "第一版"
    },
    {
      "also_name": [],
      "category": "B",
      "cn": "<span class='red'>人工智能</span>",
      "comm_name": [],
      "definition": "",
      "en": "artificial intelligence, AI",
      "ext_cn": "人工智能",
      "favorite": false,
      "full_name": [],
      "full_subject_name": "化学工程（第二版）",
      "id": "bcfe3767-58a7-4b11-a280-6eb817d53283",
      "index": 11,
      "once_name": [],
      "other_lang": {
        "en": [
          "artificial intelligence, AI"
        ]
      },
      "publish_year": "2017",
      "score": 7.512461,
      "seq": 0,
      "short_name": [],
      "source": "海峡两岸化学工程名词",
      "subject_name": "化学工程（第二版）",
      "subject_name_l1": "化学工程（第二版）",
      "tw": "<span class='red'>人工智</span>慧",
      "ver": "第二版"
    },
    {
      "also_name": [],
      "category": "B",
      "cn": "<span class='red'>人工智能</span>",
      "comm_name": [],
      "definition": "",
      "en": "artificial intelligence, AI",
      "ext_cn": "人工智能",
      "favorite": false,
      "full_name": [],
      "full_subject_name": "地理信息系统",
      "id": "d61b6605-1a7b-11e6-a638-00ff801a943b",
      "index": 12,
      "once_name": [],
      "other_lang": {
        "en": [
          "artificial intelligence, AI"
        ]
      },
      "publish_year": "2010",
      "score": 7.512461,
      "seq": 0,
      "short_name": [],
      "source": "海峡两岸地理信息系统名词",
      "subject_name": "地理信息系统",
      "subject_name_l1": "地理信息系统",
      "tw": "<span class='red'>人工智</span>慧",
      "ver": ""
    },
    {
      "also_name": [],
      "category": "B",
      "cn": "<span class='red'>人工智能</span>",
      "comm_name": [],
      "definition": "",
      "en": "artificial intelligence, AI ",
      "ext_cn": "人工智能",
      "favorite": false,
      "full_name": [],
      "full_subject_name": "信息科学技术",
      "id": "d996b725-1a7b-11e6-8efd-00ff801a943b",
      "index": 13,
      "once_name": [],
      "other_lang": {
        "en": [
          "artificial intelligence, AI "
        ]
      },
      "publish_year": "2008",
      "score": 7.512461,
      "seq": 0,
      "short_name": [],
      "source": "海峡两岸信息科学技术名词",
      "subject_name": "信息科学技术",
      "subject_name_l1": "信息科学技术",
      "tw": "<span class='red'>人工智</span>慧",
      "ver": ""
    },
    {
      "also_name": [],
      "category": "B",
      "cn": "<span class='red'>人工智能</span>",
      "comm_name": [],
      "definition": "",
      "en": "artificial intelligence",
      "ext_cn": "人工智能",
      "favorite": false,
      "full_name": [],
      "full_subject_name": "心理学",
      "id": "c6d2026f-0da5-4ecc-8451-8be6b3bed9d8",
      "index": 14,
      "once_name": [],
      "other_lang": {
        "en": [
          "artificial intelligence",
          "AI"
        ]
      },
      "publish_year": "2016",
      "score": 7.512461,
      "seq": 0,
      "short_name": [],
      "source": "海峡两岸心理学名词",
      "subject_name": "心理学",
      "subject_name_l1": "心理学",
      "tw": "<span class='red'>人工智</span>慧",
      "ver": "第一版"
    },
    {
      "also_name": [],
      "category": "B",
      "cn": "<span class='red'>人工智能</span>",
      "comm_name": [],
      "definition": "",
      "en": "artificial intelligence",
      "ext_cn": "人工智能",
      "favorite": false,
      "full_name": [],
      "full_subject_name": "药学",
      "id": "da21e229-1a7b-11e6-b61b-00ff801a943b",
      "index": 15,
      "once_name": [],
      "other_lang": {
        "en": [
          "artificial intelligence"
        ]
      },
      "publish_year": "2003",
      "score": 7.512461,
      "seq": 0,
      "short_name": [],
      "source": "海峡两岸药学名词",
      "subject_name": "药学",
      "subject_name_l1": "药学",
      "tw": "<span class='red'>人工智</span>慧",
      "ver": ""
    }
  ],
  "first": 0,
  "last": 13590,
  "next": 15,
  "pageSize": 15,
  "pre": 0,
  "rlist": {
    "list": [
      {
        "_id": "0ec6b3ca-f65b-4027-b69d-7f6704ac6e74",
        "also_name": "[]",
        "category": "A",
        "cn": "人工智能逻辑",
        "comm_name": "[]",
        "definition": "用数理逻辑的方法来研究如何形式化地表示和处理人类思维和推理法则的一门学科。",
        "en": "logics for artificial intelligence",
        "ext_cn": "人工智能逻辑",
        "ext_cn_len": 6,
        "ext_en": "logicsforartificialintelligence",
        "ext_en_len": 31,
        "ext_subject_code_l1": "A-249",
        "ext_tw": "",
        "ext_tw_len": 0,
        "full_name": "[]",
        "full_subject_name": "计算机科学技术_人工智能_人工智能逻辑",
        "id": "0ec6b3ca-f65b-4027-b69d-7f6704ac6e74",
        "once_name": "[]",
        "other_lang": "{\"en\":[\"logics for artificial intelligence\"]}",
        "publish_year": "2018",
        "short_name": "[]",
        "source": "计算机科学技术名词 ",
        "subject_code": "A-249.08.035",
        "subject_id": "1f623a41693aef4701694759c9c80039",
        "subject_name": "人工智能逻辑",
        "subject_name_l1": "计算机科学技术",
        "ver": "第三版"
      },
      {
        "_id": "058b7194-7b8d-4361-b396-e911d6d0e0cf",
        "also_name": "[]",
        "category": "A",
        "cn": "分布式人工智能",
        "comm_name": "[]",
        "definition": "人工智能的一个分支。包括多智能体系统和分布式问题求解。",
        "en": "distributed artificial intelligence",
        "ext_cn": "分布式人工智能",
        "ext_cn_len": 7,
        "ext_en": "distributedartificialintelligence",
        "ext_en_len": 33,
        "ext_subject_code_l1": "A-249",
        "ext_tw": "",
        "ext_tw_len": 0,
        "full_name": "[]",
        "full_subject_name": "计算机科学技术_人工智能_多智能体系统",
        "id": "058b7194-7b8d-4361-b396-e911d6d0e0cf",
        "once_name": "[]",
        "other_lang": "{\"en\":[\"distributed artificial intelligence\",\"DAI\"]}",
        "publish_year": "2018",
        "short_name": "[]",
        "source": "计算机科学技术名词 ",
        "subject_code": "A-249.08.037",
        "subject_id": "1f623a41693aef4701694759c9f6003b",
        "subject_name": "多智能体系统",
        "subject_name_l1": "计算机科学技术",
        "ver": "第三版"
      },
      {
        "_id": "7f93333f-470e-4654-8547-d379e47a0f00",
        "also_name": "[]",
        "category": "A",
        "cn": "人智能体",
        "comm_name": "[]",
        "definition": "在多智能体系统中，人作为一个智能体成员，参与合作求解任务。",
        "en": "human agent",
        "ext_cn": "人智能体",
        "ext_cn_len": 4,
        "ext_en": "humanagent",
        "ext_en_len": 10,
        "ext_subject_code_l1": "A-249",
        "ext_tw": "",
        "ext_tw_len": 0,
        "full_name": "[]",
        "full_subject_name": "计算机科学技术_人工智能_多智能体系统",
        "id": "7f93333f-470e-4654-8547-d379e47a0f00",
        "once_name": "[]",
        "other_lang": "{\"en\":[\"human agent\"]}",
        "publish_year": "2018",
        "short_name": "[]",
        "source": "计算机科学技术名词 ",
        "subject_code": "A-249.08.037",
        "subject_id": "1f623a41693aef4701694759c9f6003b",
        "subject_name": "多智能体系统",
        "subject_name_l1": "计算机科学技术",
        "ver": "第三版"
      },
      {
        "_id": "70aee7fb-2a33-11e6-b7da-00ff801a943b",
        "also_name": "[]",
        "category": "A",
        "cn": "智能机器人",
        "comm_name": "[]",
        "en": "intelligent robot",
        "ext_cn": "智能机器人",
        "ext_cn_len": 5,
        "ext_en": "intelligentrobot",
        "ext_en_len": 16,
        "ext_subject_code_l1": "B-150",
        "ext_tw": "",
        "ext_tw_len": 0,
        "full_name": "[]",
        "full_subject_name": "电子学(第一版)_自控与三遥技术",
        "id": "70aee7fb-2a33-11e6-b7da-00ff801a943b",
        "once_name": "[]",
        "other_lang": "{\"en\": [\"intelligent robot\"]}",
        "publish_year": 1993,
        "short_name": "[]",
        "source": "电子学名词",
        "subject_code": "B-150.23",
        "subject_name": "自控与三遥技术",
        "subject_name_l1": "电子学",
        "ver": "第一版"
      },
      {
        "_id": "935fb35e-9b99-4b98-a8bd-3c1c00687b60",
        "also_name": "[]",
        "category": "A",
        "cn": "智能配送",
        "comm_name": "[]",
        "definition": "在制订配送规划时，运用计算机技术、图论、运筹学、统计学等方面的技术，由计算机根据配送的要求，选择最佳的配送方案。",
        "en": "intelligent distribution ",
        "ext_cn": "智能配送",
        "ext_cn_len": 4,
        "ext_en": "intelligentdistribution",
        "ext_en_len": 23,
        "ext_subject_code_l1": "A-238",
        "ext_tw": "",
        "ext_tw_len": 0,
        "full_name": "[]",
        "full_subject_name": "管理科学技术_生产运作管理与工业工程_生产运作管理",
        "id": "935fb35e-9b99-4b98-a8bd-3c1c00687b60",
        "once_name": "[]",
        "other_lang": "{\"en\":[\"intelligent distribution \"]}",
        "publish_year": "2016",
        "short_name": "[]",
        "source": "管理科学技术名词",
        "subject_code": "A-238.05.036",
        "subject_id": "8a82839156fd6ea10157022df1e01103",
        "subject_name": "生产运作管理",
        "subject_name_l1": "管理科学技术",
        "ver": "第一版"
      }
    ]
  },
  "rows": 15,
  "showFirst": false,
  "showLast": true,
  "start": 0,
  "time": "0.31",
  "total": 13596,
  "totalPage": 907
}
